{
    "/js/app.js": "/js/app.js",
    "/css/app.css": "/css/app.css",
    "/css/common/common.css": "/css/common/common.css",
    "/css/general/home/home.css": "/css/general/home/home.css",
    "/css/general/myfiles/myfiles.css": "/css/general/myfiles/myfiles.css",
    "/css/general/myaccount/myaccount.css": "/css/general/myaccount/myaccount.css",
    "/css/admin/noticies/noticies.css": "/css/admin/noticies/noticies.css",
    "/css/admin/users/users.css": "/css/admin/users/users.css"
}
